{"data":{"total":275,"per_page":"20","current_page":1,"last_page":14,"data":[{"id":271,"player_id":271,"player_no":"YF00188","name":"林群淇","avatar":"http:\/\/iflight-public.oss-cn-hongkong.aliyuncs.com\/idrc\/20251125\/bffd7ca620ceaa7af6bbae9b9b6598bb.jpg","votes":297,"rank":1},{"id":231,"player_id":231,"player_no":"YF00148","name":"张苑乔","avatar":"http:\/\/iflight-public.oss-cn-hongkong.aliyuncs.com\/idrc\/20251125\/b321d73df8b4216a20360d19273f689f.jpg","votes":170,"rank":2},{"id":236,"player_id":236,"player_no":"YF00153","name":"张贺翔","avatar":"http:\/\/iflight-public.oss-cn-hongkong.aliyuncs.com\/idrc\/20251125\/6e210e3075d116552cf7e26e3df4e357.jpg","votes":65,"rank":3},{"id":433,"player_id":433,"player_no":"YF00307","name":"李若驎","avatar":"http:\/\/iflight-public.oss-cn-hongkong.aliyuncs.com\/idrc\/20251126\/7ae43ba22f8c921f50ad84c8cb6955ad.png","votes":56,"rank":4},{"id":68,"player_id":68,"player_no":"YF00022","name":"李甜星","avatar":"http:\/\/iflight-public.oss-cn-hongkong.aliyuncs.com\/idrc\/20251121\/082fbe2fb990c9d2e0794e406a2f0586.jpg","votes":44,"rank":5},{"id":206,"player_id":206,"player_no":"YF00129","name":"于心浩","avatar":"http:\/\/iflight-public.oss-cn-hongkong.aliyuncs.com\/idrc\/20251124\/2f6fe719114401878cb81b1e88eac65e.jpg","votes":32,"rank":6},{"id":232,"player_id":232,"player_no":"YF00149","name":"胡夏天","avatar":"http:\/\/iflight-public.oss-cn-hongkong.aliyuncs.com\/idrc\/20251125\/d0eea737ce561e0c3ebc4e546e104c67.jpg","votes":24,"rank":7},{"id":395,"player_id":395,"player_no":"YF00296","name":"方宥承","avatar":"http:\/\/iflight-public.oss-cn-hongkong.aliyuncs.com\/idrc\/20251126\/10b868041bfe9c6b407750ce52581249.jpg","votes":17,"rank":8},{"id":127,"player_id":127,"player_no":"YF00050","name":"罗文辉","avatar":"http:\/\/iflight-public.oss-cn-hongkong.aliyuncs.com\/idrc\/20251122\/bc9de31b045dce8091827cb9c2f203cf.jpg","votes":10,"rank":9},{"id":268,"player_id":268,"player_no":"YF00185","name":"李可儿","avatar":"http:\/\/iflight-public.oss-cn-hongkong.aliyuncs.com\/idrc\/20251125\/3a499e0d0561aed3fd76402732894423.jpg","votes":8,"rank":10},{"id":276,"player_id":276,"player_no":"YF00193","name":"杨活现","avatar":"http:\/\/iflight-public.oss-cn-hongkong.aliyuncs.com\/idrc\/20251125\/a7d8afc9411b4d1841d60cf25b84925e.jpg","votes":7,"rank":11},{"id":437,"player_id":437,"player_no":"YF00311","name":"刘松明","avatar":"http:\/\/iflight-public.oss-cn-hongkong.aliyuncs.com\/idrc\/20251126\/6fb58725289ab389c23498683f295c8a.png","votes":5,"rank":12},{"id":103,"player_id":103,"player_no":"YF00040","name":"袁煜凡","avatar":"http:\/\/iflight-public.oss-cn-hongkong.aliyuncs.com\/idrc\/20251122\/ec6169592d13b4d10cf09dd1f8500ff6.jpg","votes":4,"rank":13},{"id":136,"player_id":136,"player_no":"YF00059","name":"章力维","avatar":"http:\/\/iflight-public.oss-cn-hongkong.aliyuncs.com\/idrc\/20251122\/6af1b28e65543d968cfa6735e7976c64.jpeg","votes":4,"rank":13},{"id":559,"player_id":559,"player_no":"YF00431","name":"张楷森","avatar":"http:\/\/iflight-public.oss-cn-hongkong.aliyuncs.com\/idrc\/20251129\/af9f5ace1b5a6934f482db2f0a9bc39d.png","votes":4,"rank":13},{"id":465,"player_id":465,"player_no":"YF00338","name":"刘灏轩","avatar":"http:\/\/iflight-public.oss-cn-hongkong.aliyuncs.com\/idrc\/20251219\/c3ef629e308ba1180946fd4694a452c7.jpg","votes":4,"rank":13},{"id":218,"player_id":218,"player_no":"YF00001","name":"KWAN STEPHEN CHUN-YAN","avatar":"http:\/\/iflight-public.oss-cn-hongkong.aliyuncs.com\/idrc\/20251124\/5c482461281df3e3fb8615f939ea6c18.png","votes":4,"rank":13},{"id":357,"player_id":357,"player_no":"YF00258","name":"云飞屹","avatar":"http:\/\/iflight-public.oss-cn-hongkong.aliyuncs.com\/idrc\/20251125\/11a2de61362ca85d9277d43edcd08b46.jpg","votes":3,"rank":14},{"id":233,"player_id":233,"player_no":"YF00150","name":"谢瑾瑜","avatar":"http:\/\/iflight-public.oss-cn-hongkong.aliyuncs.com\/idrc\/20251125\/055ad3b5eb61e16ff8f6f44ca8bba9d4.jpg","votes":3,"rank":14},{"id":182,"player_id":182,"player_no":"YF00105","name":"孔海森","avatar":"http:\/\/iflight-public.oss-cn-hongkong.aliyuncs.com\/idrc\/20251125\/fb202023f91b043d8b0e117bb77eaaaa.jpeg","votes":3,"rank":14}]},"msg":"success","code":1}